Finite Element FAS Performance Sampler on process grid [3 4 4] = 48
Max memory per MPI rank: 0.015413 GB
Small Test G[   12   12   16]
Q2 G[   12   12   16] P[  3  4  4]  1.095e-01 s    1.457649 GF    0.187999 MEq/s
Large Test G[  384  384  512]
Q2  0 e_max 1.20e-01(0.0) e_L2 1.10e-01(0.0) r_2 1.68e-09(0.0) G[    3    3    4] L[   3   3   4] P[  1  1  1]
Q2  1 e_max 3.00e-02(2.0) e_L2 1.53e-02(2.8) r_2 5.05e-03(-21.5) G[    6    6    8] L[   3   3   4] P[  2  2  2]
Q2  2 e_max 3.68e-03(3.0) e_L2 1.95e-03(3.0) r_2 2.18e-03(1.2) G[   12   12   16] L[   4   3   4] P[  3  4  4]
Q2  3 e_max 4.50e-04(3.0) e_L2 2.45e-04(3.0) r_2 9.05e-04(1.3) G[   24   24   32] L[   8   6   8] P[  3  4  4]
Q2  4 e_max 5.71e-05(3.0) e_L2 3.07e-05(3.0) r_2 4.11e-04(1.1) G[   48   48   64] L[  16  12  16] P[  3  4  4]
Q2  5 e_max 7.15e-06(3.0) e_L2 3.84e-06(3.0) r_2 1.99e-04(1.0) G[   96   96  128] L[  32  24  32] P[  3  4  4]
Q2  6 e_max 8.94e-07(3.0) e_L2 4.80e-07(3.0) r_2 1.00e-04(1.0) G[  192  192  256] L[  64  48  64] P[  3  4  4]
Q2  7 e_max 1.16e-07(2.9) e_L2 6.00e-08(3.0) r_2 5.15e-05(1.0) G[  384  384  512] L[ 128  96 128] P[  3  4  4]
Q2 G[  384  384  512] P[  3  4  4]  3.057e+01 s  203.892853 GF   19.829508 MEq/s
Max memory per MPI rank: 2.211074 GB
Starting performance sampling
Q2 G[   12   12   16] P[  3  4  4]  6.461e-03 s   24.564570 GF    3.168193 MEq/s
Q2 G[   12   12   16] P[  3  4  4]  6.114e-03 s   26.054419 GF    3.361212 MEq/s
Q2 G[   12   12   16] P[  3  4  4]  6.100e-03 s   26.098022 GF    3.366837 MEq/s
Q2 G[   12   12   16] P[  3  4  4]  6.146e-03 s   25.852517 GF    3.335165 MEq/s
Q2 G[   12   12   16] P[  3  4  4]  6.186e-03 s   25.665502 GF    3.311039 MEq/s
Q2 G[   12   12   16] P[  3  4  4]  6.215e-03 s   25.608653 GF    3.303705 MEq/s
Q2 G[   12   12   16] P[  3  4  4]  6.078e-03 s   26.212281 GF    3.381578 MEq/s
Q2 G[   12   12   16] P[  3  4  4]  6.066e-03 s   26.244083 GF    3.385680 MEq/s
Q2 G[   12   12   16] P[  3  4  4]  6.953e-03 s   22.921298 GF    2.957017 MEq/s
Q2 G[   12   12   16] P[  3  4  4]  6.293e-03 s   25.078072 GF    3.235256 MEq/s
Q2 G[   12   12   16] P[  3  4  4]  7.034e-03 s   22.303761 GF    2.877350 MEq/s
Q2 G[   12   12   16] P[  3  4  4]  7.248e-03 s   21.900211 GF    2.825289 MEq/s
Q2 G[   12   12   16] P[  3  4  4]  6.552e-03 s   24.312482 GF    3.136490 MEq/s
Q2 G[   12   12   16] P[  3  4  4]  6.279e-03 s   25.094026 GF    3.237315 MEq/s
Q2 G[   12   12   16] P[  3  4  4]  6.833e-03 s   23.244682 GF    2.998735 MEq/s
Q2 G[   12   12   16] P[  3  4  4]  6.606e-03 s   24.092357 GF    3.108092 MEq/s
Q2 G[   12   12   16] P[  3  4  4]  6.503e-03 s   24.490069 GF    3.159400 MEq/s
Q2 G[   12   12   16] P[  3  4  4]  6.363e-03 s   24.992083 GF    3.224163 MEq/s
Q2 G[   12   12   16] P[  3  4  4]  6.972e-03 s   22.845550 GF    2.947244 MEq/s
Q2 G[   12   12   16] P[  3  4  4]  6.403e-03 s   24.855904 GF    3.206595 MEq/s
Q2 G[   12   12   16] P[  3  4  4]  6.545e-03 s   24.319536 GF    3.137400 MEq/s
Q2 G[   12   12   16] P[  3  4  4]  6.070e-03 s   26.238949 GF    3.385018 MEq/s
Q2 G[   12   12   16] P[  3  4  4]  6.047e-03 s   26.317212 GF    3.395115 MEq/s
Q2 G[   12   12   16] P[  3  4  4]  6.093e-03 s   26.131584 GF    3.371167 MEq/s
Q2 G[   12   12   16] P[  3  4  4]  6.505e-03 s   24.487386 GF    3.159053 MEq/s
Q2 G[   12   12   16] P[  3  4  4]  6.074e-03 s   26.209207 GF    3.381181 MEq/s
Q2 G[   12   12   16] P[  3  4  4]  6.069e-03 s   26.234842 GF    3.384488 MEq/s
Q2 G[   12   12   16] P[  3  4  4]  6.050e-03 s   26.317212 GF    3.395115 MEq/s
Q2 G[   12   12   16] P[  3  4  4]  6.079e-03 s   26.201015 GF    3.380124 MEq/s
Q2 G[   12   12   16] P[  3  4  4]  6.090e-03 s   26.148907 GF    3.373402 MEq/s
Q2 G[   12   12   16] P[  3  4  4]  6.960e-03 s   22.882190 GF    2.951971 MEq/s
Q2 G[   12   12   16] P[  3  4  4]  6.072e-03 s   26.225608 GF    3.383297 MEq/s
Q2 G[   12   12   16] P[  3  4  4]  7.041e-03 s   21.933880 GF    2.829632 MEq/s
Q2 G[   12   12   16] P[  3  4  4]  1.087e-02 s   12.930745 GF    1.668162 MEq/s
Q2 G[   12   12   16] P[  3  4  4]  7.400e-03 s   21.000362 GF    2.709202 MEq/s
Q2 G[   12   12   16] P[  3  4  4]  8.397e-03 s   18.969238 GF    2.447172 MEq/s
Q2 G[   12   12   16] P[  3  4  4]  6.258e-03 s   25.454091 GF    3.283766 MEq/s
Q2 G[   12   12   16] P[  3  4  4]  6.979e-03 s   22.812906 GF    2.943033 MEq/s
Q2 G[   12   12   16] P[  3  4  4]  6.080e-03 s   26.178512 GF    3.377221 MEq/s
Q2 G[   12   12   16] P[  3  4  4]  6.068e-03 s   26.247165 GF    3.386078 MEq/s
Q2 G[   12   12   16] P[  3  4  4]  6.591e-03 s   24.167901 GF    3.117838 MEq/s
Q2 G[   12   12   16] P[  3  4  4]  6.149e-03 s   25.886449 GF    3.339543 MEq/s
Q2 G[   12   12   16] P[  3  4  4]  6.103e-03 s   26.084824 GF    3.365135 MEq/s
Q2 G[   12   12   16] P[  3  4  4]  6.045e-03 s   26.342024 GF    3.398316 MEq/s
Q2 G[   12   12   16] P[  3  4  4]  6.075e-03 s   26.217405 GF    3.382239 MEq/s
Q2 G[   12   12   16] P[  3  4  4]  7.487e-03 s   21.299196 GF    2.747753 MEq/s
Q2 G[   12   12   16] P[  3  4  4]  6.802e-03 s   23.445424 GF    3.024633 MEq/s
Q2 G[   12   12   16] P[  3  4  4]  6.705e-03 s   23.748497 GF    3.063731 MEq/s
Q2 G[   12   12   16] P[  3  4  4]  9.057e-03 s   17.605613 GF    2.271254 MEq/s
Q2 G[   12   12   16] P[  3  4  4]  6.086e-03 s   23.958075 GF    3.090769 MEq/s
Q2 G[   12   12   16] P[  3  4  4]  6.970e-03 s   22.861906 GF    2.949355 MEq/s
Q2 G[   12   12   16] P[  3  4  4]  7.914e-03 s   20.140038 GF    2.598214 MEq/s
Q2 G[   12   12   16] P[  3  4  4]  6.945e-03 s   19.759623 GF    2.549137 MEq/s
Q2 G[   12   12   16] P[  3  4  4]  6.085e-03 s   26.170338 GF    3.376167 MEq/s
Q2 G[   12   12   16] P[  3  4  4]  6.093e-03 s   26.140752 GF    3.372350 MEq/s
Q2 G[   12   12   16] P[  3  4  4]  6.072e-03 s   26.204087 GF    3.380521 MEq/s
Q2 G[   12   12   16] P[  3  4  4]  6.072e-03 s   26.230738 GF    3.383959 MEq/s
Q2 G[   12   12   16] P[  3  4  4]  6.044e-03 s   26.338920 GF    3.397915 MEq/s
Q2 G[   12   12   16] P[  3  4  4]  6.571e-03 s   22.426092 GF    2.893131 MEq/s
Q2 G[   12   12   16] P[  3  4  4]  6.428e-03 s   24.771429 GF    3.195697 MEq/s
Q2 G[   12   12   16] P[  3  4  4]  6.884e-03 s   23.139604 GF    2.985180 MEq/s
Q2 G[   12   12   16] P[  3  4  4]  7.732e-03 s   20.618103 GF    2.659887 MEq/s
Q2 G[   12   12   16] P[  3  4  4]  7.616e-03 s   20.923042 GF    2.699227 MEq/s
Q2 G[   12   12   16] P[  3  4  4]  6.594e-03 s   22.722462 GF    2.931365 MEq/s
Q2 G[   12   12   16] P[  3  4  4]  6.889e-03 s   23.109301 GF    2.981270 MEq/s
Q2 G[   12   12   16] P[  3  4  4]  6.071e-03 s   26.238949 GF    3.385018 MEq/s
Q2 G[   12   12   16] P[  3  4  4]  6.681e-03 s   23.847312 GF    3.076479 MEq/s
Q2 G[   12   12   16] P[  3  4  4]  6.558e-03 s   24.234282 GF    3.126401 MEq/s
Q2 G[   12   12   16] P[  3  4  4]  6.628e-03 s   23.794002 GF    3.069602 MEq/s
Q2 G[   12   12   16] P[  3  4  4]  6.879e-03 s   23.089408 GF    2.978704 MEq/s
Q2 G[   12   12   16] P[  3  4  4]  7.015e-03 s   22.674057 GF    2.925121 MEq/s
Q2 G[   12   12   16] P[  3  4  4]  6.952e-03 s   22.722462 GF    2.931365 MEq/s
Q2 G[   12   12   16] P[  3  4  4]  9.893e-03 s   16.001970 GF    2.064372 MEq/s
Q2 G[   12   12   16] P[  3  4  4]  1.463e-02 s   10.866880 GF    1.401908 MEq/s
Q2 G[   12   12   16] P[  3  4  4]  7.244e-03 s   20.854717 GF    2.690412 MEq/s
Q2 G[   12   12   16] P[  3  4  4]  6.932e-03 s   22.977062 GF    2.964211 MEq/s
Q2 G[   12   12   16] P[  3  4  4]  6.445e-03 s   24.412501 GF    3.149393 MEq/s
Q2 G[   12   12   16] P[  3  4  4]  6.505e-03 s   24.479340 GF    3.158016 MEq/s
Q2 G[   12   12   16] P[  3  4  4]  6.065e-03 s   26.252303 GF    3.386741 MEq/s
Q2 G[   12   12   16] P[  3  4  4]  6.098e-03 s   26.102085 GF    3.367362 MEq/s
Q2 G[   12   12   16] P[  3  4  4]  6.081e-03 s   26.187713 GF    3.378408 MEq/s
Q2 G[   12   12   16] P[  3  4  4]  6.070e-03 s   26.238949 GF    3.385018 MEq/s
Q2 G[   12   12   16] P[  3  4  4]  6.071e-03 s   26.248192 GF    3.386211 MEq/s
Q2 G[   12   12   16] P[  3  4  4]  6.054e-03 s   26.294509 GF    3.392186 MEq/s
Q2 G[   12   12   16] P[  3  4  4]  6.068e-03 s   26.230738 GF    3.383959 MEq/s
Q2 G[   12   12   16] P[  3  4  4]  6.175e-03 s   25.617458 GF    3.304841 MEq/s
Q2 G[   12   12   16] P[  3  4  4]  6.265e-03 s   25.385674 GF    3.274939 MEq/s
Q2 G[   12   12   16] P[  3  4  4]  6.345e-03 s   24.980910 GF    3.222722 MEq/s
Q2 G[   12   12   16] P[  3  4  4]  6.214e-03 s   25.094026 GF    3.237315 MEq/s
Q2 G[   12   12   16] P[  3  4  4]  6.990e-03 s   22.796620 GF    2.940932 MEq/s
Q2 G[   12   12   16] P[  3  4  4]  6.531e-03 s   24.289585 GF    3.133536 MEq/s
Q2 G[   12   12   16] P[  3  4  4]  6.512e-03 s   24.460589 GF    3.155596 MEq/s
Q2 G[   12   12   16] P[  3  4  4]  6.552e-03 s   24.301028 GF    3.135012 MEq/s
Q2 G[   12   12   16] P[  3  4  4]  6.820e-03 s   23.093383 GF    2.979217 MEq/s
Q2 G[   12   12   16] P[  3  4  4]  6.135e-03 s   25.911456 GF    3.342769 MEq/s
Q2 G[   12   12   16] P[  3  4  4]  6.241e-03 s   25.389519 GF    3.275435 MEq/s
Q2 G[   12   12   16] P[  3  4  4]  6.612e-03 s   23.600555 GF    3.044646 MEq/s
Q2 G[   12   12   16] P[  3  4  4]  6.155e-03 s   25.886449 GF    3.339543 MEq/s
Q2 G[   12   12   16] P[  3  4  4]  6.081e-03 s   26.174424 GF    3.376694 MEq/s
Q2 G[   12   12   16] P[  3  4  4]  6.070e-03 s   26.234842 GF    3.384488 MEq/s
Q2 G[   12   12   16] P[  3  4  4]  6.091e-03 s   26.157067 GF    3.374455 MEq/s
Q2 G[   12   12   16] P[  3  4  4]  6.075e-03 s   26.201015 GF    3.380124 MEq/s
Q2 G[   12   12   16] P[  3  4  4]  6.074e-03 s   26.225608 GF    3.383297 MEq/s
Q2 G[   12   12   16] P[  3  4  4]  6.074e-03 s   26.209207 GF    3.381181 MEq/s
Q2 G[   12   12   16] P[  3  4  4]  6.436e-03 s   24.323065 GF    3.137855 MEq/s
Q2 G[   12   12   16] P[  3  4  4]  6.084e-03 s   26.165232 GF    3.375508 MEq/s
Q2 G[   12   12   16] P[  3  4  4]  6.072e-03 s   26.238949 GF    3.385018 MEq/s
Q2 G[   12   12   16] P[  3  4  4]  6.083e-03 s   26.161149 GF    3.374981 MEq/s
Q2 G[   12   12   16] P[  3  4  4]  6.071e-03 s   26.268758 GF    3.388864 MEq/s
Q2 G[   12   12   16] P[  3  4  4]  6.067e-03 s   26.243056 GF    3.385548 MEq/s
Q2 G[   12   12   16] P[  3  4  4]  6.085e-03 s   26.161149 GF    3.374981 MEq/s
Q2 G[   12   12   16] P[  3  4  4]  6.080e-03 s   26.199991 GF    3.379992 MEq/s
Q2 G[   12   12   16] P[  3  4  4]  6.093e-03 s   26.119370 GF    3.369591 MEq/s
Q2 G[   12   12   16] P[  3  4  4]  6.072e-03 s   26.217405 GF    3.382239 MEq/s
Q2 G[   12   12   16] P[  3  4  4]  6.067e-03 s   26.256415 GF    3.387271 MEq/s
Q2 G[   12   12   16] P[  3  4  4]  6.073e-03 s   26.243056 GF    3.385548 MEq/s
Q2 G[   12   12   16] P[  3  4  4]  6.086e-03 s   26.166253 GF    3.375640 MEq/s
Q2 G[   12   12   16] P[  3  4  4]  6.091e-03 s   26.131584 GF    3.371167 MEq/s
Q2 G[   12   12   16] P[  3  4  4]  6.077e-03 s   26.205111 GF    3.380653 MEq/s
Q2 G[   12   12   16] P[  3  4  4]  6.428e-03 s   24.767769 GF    3.195225 MEq/s
Q2 G[   12   12   16] P[  3  4  4]  6.123e-03 s   26.004909 GF    3.354825 MEq/s
Q2 G[   12   12   16] P[  3  4  4]  6.232e-03 s   25.555950 GF    3.296906 MEq/s
Q2 G[   12   12   16] P[  3  4  4]  6.067e-03 s   26.252303 GF    3.386741 MEq/s
Q2 G[   12   12   16] P[  3  4  4]  6.092e-03 s   26.135658 GF    3.371693 MEq/s
Q2 G[   12   12   16] P[  3  4  4]  6.112e-03 s   26.063533 GF    3.362388 MEq/s
Q2 G[   12   12   16] P[  3  4  4]  6.650e-03 s   23.657173 GF    3.051950 MEq/s
Q2 G[   12   12   16] P[  3  4  4]  7.423e-03 s   21.169421 GF    2.731011 MEq/s
Q2 G[   12   12   16] P[  3  4  4]  6.683e-03 s   23.217318 GF    2.995205 MEq/s
Q2 G[   12   12   16] P[  3  4  4]  6.210e-03 s   25.637046 GF    3.307368 MEq/s
Q2 G[   12   12   16] P[  3  4  4]  6.080e-03 s   26.183623 GF    3.377881 MEq/s
Q2 G[   12   12   16] P[  3  4  4]  6.092e-03 s   26.144829 GF    3.372876 MEq/s
Q2 G[   12   12   16] P[  3  4  4]  7.834e-03 s   20.348442 GF    2.625099 MEq/s
Q2 G[   12   12   16] P[  3  4  4]  6.231e-03 s   25.300429 GF    3.263942 MEq/s
Q2 G[   12   12   16] P[  3  4  4]  6.071e-03 s   26.256415 GF    3.387271 MEq/s
Q2 G[   12   12   16] P[  3  4  4]  6.057e-03 s   26.059481 GF    3.361865 MEq/s
Q2 G[   12   12   16] P[  3  4  4]  6.081e-03 s   26.186690 GF    3.378276 MEq/s
Q2 G[   12   12   16] P[  3  4  4]  6.082e-03 s   26.162170 GF    3.375113 MEq/s
Q2 G[   12   12   16] P[  3  4  4]  6.071e-03 s   26.209207 GF    3.381181 MEq/s
Q2 G[   12   12   16] P[  3  4  4]  6.082e-03 s   26.191804 GF    3.378936 MEq/s
Q2 G[   12   12   16] P[  3  4  4]  6.073e-03 s   26.209207 GF    3.381181 MEq/s
Q2 G[   12   12   16] P[  3  4  4]  6.071e-03 s   26.217405 GF    3.382239 MEq/s
Q2 G[   12   12   16] P[  3  4  4]  6.221e-03 s   25.596922 GF    3.302192 MEq/s
Q2 G[   12   12   16] P[  3  4  4]  6.072e-03 s   26.205111 GF    3.380653 MEq/s
Q2 G[   12   12   16] P[  3  4  4]  6.112e-03 s   25.865480 GF    3.336838 MEq/s
Q2 G[   12   12   16] P[  3  4  4]  6.061e-03 s   26.278022 GF    3.390059 MEq/s
Q2 G[   12   12   16] P[  3  4  4]  6.055e-03 s   26.286263 GF    3.391122 MEq/s
Q2 G[   12   12   16] P[  3  4  4]  6.065e-03 s   26.287294 GF    3.391255 MEq/s
Q2 G[   12   12   16] P[  3  4  4]  6.054e-03 s   26.299666 GF    3.392851 MEq/s
Q2 G[   12   12   16] P[  3  4  4]  6.073e-03 s   26.221506 GF    3.382768 MEq/s
Q2 G[   12   12   16] P[  3  4  4]  6.054e-03 s   26.303792 GF    3.393383 MEq/s
Q2 G[   12   12   16] P[  3  4  4]  6.288e-03 s   25.332927 GF    3.268134 MEq/s
Q2 G[   12   12   16] P[  3  4  4]  6.066e-03 s   26.260528 GF    3.387802 MEq/s
Q2 G[   24   24   32] P[  3  4  4]  1.313e-02 s   89.975574 GF   11.854541 MEq/s
Q2 G[   24   24   32] P[  3  4  4]  1.253e-02 s   94.239025 GF   12.419536 MEq/s
Q2 G[   24   24   32] P[  3  4  4]  1.265e-02 s   93.392036 GF   12.307913 MEq/s
Q2 G[   24   24   32] P[  3  4  4]  1.262e-02 s   93.585599 GF   12.333422 MEq/s
Q2 G[   24   24   32] P[  3  4  4]  1.255e-02 s   94.074815 GF   12.397895 MEq/s
Q2 G[   24   24   32] P[  3  4  4]  1.275e-02 s   92.625728 GF   12.206923 MEq/s
Q2 G[   24   24   32] P[  3  4  4]  1.262e-02 s   93.592652 GF   12.334352 MEq/s
Q2 G[   24   24   32] P[  3  4  4]  1.251e-02 s   94.403810 GF   12.441252 MEq/s
Q2 G[   24   24   32] P[  3  4  4]  1.252e-02 s   94.450484 GF   12.447403 MEq/s
Q2 G[   24   24   32] P[  3  4  4]  1.274e-02 s   92.071145 GF   12.133836 MEq/s
Q2 G[   24   24   32] P[  3  4  4]  1.255e-02 s   94.135434 GF   12.405884 MEq/s
Q2 G[   24   24   32] P[  3  4  4]  1.254e-02 s   94.215787 GF   12.416473 MEq/s
Q2 G[   24   24   32] P[  3  4  4]  1.252e-02 s   94.292696 GF   12.426609 MEq/s
Q2 G[   24   24   32] P[  3  4  4]  1.260e-02 s   93.687982 GF   12.346915 MEq/s
Q2 G[   24   24   32] P[  3  4  4]  1.252e-02 s   94.396633 GF   12.440307 MEq/s
Q2 G[   24   24   32] P[  3  4  4]  1.255e-02 s   94.105115 GF   12.401888 MEq/s
Q2 G[   24   24   32] P[  3  4  4]  1.257e-02 s   93.113662 GF   12.271227 MEq/s
Q2 G[   24   24   32] P[  3  4  4]  1.253e-02 s   94.292696 GF   12.426609 MEq/s
Q2 G[   24   24   32] P[  3  4  4]  1.252e-02 s   94.330302 GF   12.431565 MEq/s
Q2 G[   24   24   32] P[  3  4  4]  1.254e-02 s   94.187201 GF   12.412706 MEq/s
Q2 G[   24   24   32] P[  3  4  4]  1.277e-02 s   92.553238 GF   12.197370 MEq/s
Q2 G[   24   24   32] P[  3  4  4]  1.300e-02 s   90.918381 GF   11.981916 MEq/s
Q2 G[   24   24   32] P[  3  4  4]  1.273e-02 s   92.777982 GF   12.226988 MEq/s
Q2 G[   24   24   32] P[  3  4  4]  1.297e-02 s   91.086779 GF   12.004109 MEq/s
Q2 G[   24   24   32] P[  3  4  4]  1.255e-02 s   94.112247 GF   12.402828 MEq/s
Q2 G[   24   24   32] P[  3  4  4]  1.254e-02 s   94.187201 GF   12.412706 MEq/s
Q2 G[   24   24   32] P[  3  4  4]  1.257e-02 s   93.984031 GF   12.385931 MEq/s
Q2 G[   24   24   32] P[  3  4  4]  1.269e-02 s   93.070043 GF   12.265478 MEq/s
Q2 G[   24   24   32] P[  3  4  4]  1.273e-02 s   92.814390 GF   12.231786 MEq/s
Q2 G[   24   24   32] P[  3  4  4]  1.310e-02 s   88.918046 GF   11.718297 MEq/s
Q2 G[   24   24   32] P[  3  4  4]  1.549e-02 s   75.678969 GF    9.973550 MEq/s
Q2 G[   24   24   32] P[  3  4  4]  1.306e-02 s   90.211629 GF   11.888775 MEq/s
Q2 G[   24   24   32] P[  3  4  4]  1.368e-02 s   86.288907 GF   11.371809 MEq/s
Q2 G[   24   24   32] P[  3  4  4]  1.332e-02 s   88.466686 GF   11.658813 MEq/s
Q2 G[   24   24   32] P[  3  4  4]  1.362e-02 s   86.666819 GF   11.421613 MEq/s
Q2 G[   24   24   32] P[  3  4  4]  1.470e-02 s   80.210614 GF   10.570765 MEq/s
Q2 G[   24   24   32] P[  3  4  4]  1.306e-02 s   90.397155 GF   11.913225 MEq/s
Q2 G[   24   24   32] P[  3  4  4]  1.448e-02 s   80.839850 GF   10.653691 MEq/s
Q2 G[   24   24   32] P[  3  4  4]  1.297e-02 s   90.995000 GF   11.992013 MEq/s
Q2 G[   24   24   32] P[  3  4  4]  1.255e-02 s   94.097984 GF   12.400948 MEq/s
Q2 G[   24   24   32] P[  3  4  4]  1.253e-02 s   94.217574 GF   12.416709 MEq/s
Q2 G[   24   24   32] P[  3  4  4]  1.255e-02 s   94.105115 GF   12.401888 MEq/s
Q2 G[   24   24   32] P[  3  4  4]  1.250e-02 s   94.495407 GF   12.453324 MEq/s
Q2 G[   24   24   32] P[  3  4  4]  1.253e-02 s   94.299857 GF   12.427553 MEq/s
Q2 G[   24   24   32] P[  3  4  4]  1.371e-02 s   86.106408 GF   11.347758 MEq/s
Q2 G[   24   24   32] P[  3  4  4]  1.271e-02 s   92.880342 GF   12.240478 MEq/s
Q2 G[   24   24   32] P[  3  4  4]  1.341e-02 s   88.032364 GF   11.601575 MEq/s
Q2 G[   24   24   32] P[  3  4  4]  1.387e-02 s   84.670861 GF   11.158570 MEq/s
Q2 G[   24   24   32] P[  3  4  4]  1.471e-02 s   80.340354 GF   10.587863 MEq/s
Q2 G[   24   24   32] P[  3  4  4]  1.294e-02 s   91.324595 GF   12.035450 MEq/s
Q2 G[   24   24   32] P[  3  4  4]  1.270e-02 s   92.523929 GF   12.193507 MEq/s
Q2 G[   24   24   32] P[  3  4  4]  1.365e-02 s   86.539978 GF   11.404897 MEq/s
Q2 G[   24   24   32] P[  3  4  4]  1.254e-02 s   94.224723 GF   12.417651 MEq/s
Q2 G[   24   24   32] P[  3  4  4]  1.255e-02 s   94.119380 GF   12.403768 MEq/s
Q2 G[   24   24   32] P[  3  4  4]  1.254e-02 s   94.224723 GF   12.417651 MEq/s
Q2 G[   24   24   32] P[  3  4  4]  1.259e-02 s   93.827796 GF   12.365341 MEq/s
Q2 G[   24   24   32] P[  3  4  4]  1.256e-02 s   94.081942 GF   12.398834 MEq/s
Q2 G[   24   24   32] P[  3  4  4]  1.251e-02 s   94.427141 GF   12.444327 MEq/s
Q2 G[   24   24   32] P[  3  4  4]  1.270e-02 s   93.061324 GF   12.264329 MEq/s
Q2 G[   24   24   32] P[  3  4  4]  1.256e-02 s   93.904073 GF   12.375393 MEq/s
Q2 G[   24   24   32] P[  3  4  4]  1.255e-02 s   94.081942 GF   12.398834 MEq/s
Q2 G[   24   24   32] P[  3  4  4]  1.251e-02 s   94.375110 GF   12.437470 MEq/s
Q2 G[   24   24   32] P[  3  4  4]  1.297e-02 s   91.001668 GF   11.992892 MEq/s
Q2 G[   24   24   32] P[  3  4  4]  1.378e-02 s   84.809652 GF   11.176861 MEq/s
Q2 G[   24   24   32] P[  3  4  4]  1.386e-02 s   85.325398 GF   11.244830 MEq/s
Q2 G[   24   24   32] P[  3  4  4]  1.262e-02 s   90.618150 GF   11.942349 MEq/s
Q2 G[   24   24   32] P[  3  4  4]  1.300e-02 s   90.855184 GF   11.973587 MEq/s
Q2 G[   24   24   32] P[  3  4  4]  1.276e-02 s   92.553238 GF   12.197370 MEq/s
Q2 G[   24   24   32] P[  3  4  4]  1.252e-02 s   94.321346 GF   12.430385 MEq/s
Q2 G[   24   24   32] P[  3  4  4]  1.252e-02 s   94.337469 GF   12.432509 MEq/s
Q2 G[   24   24   32] P[  3  4  4]  1.259e-02 s   93.799446 GF   12.361605 MEq/s
Q2 G[   24   24   32] P[  3  4  4]  1.261e-02 s   93.636762 GF   12.340165 MEq/s
Q2 G[   24   24   32] P[  3  4  4]  1.253e-02 s   94.269431 GF   12.423543 MEq/s
Q2 G[   24   24   32] P[  3  4  4]  1.255e-02 s   94.097984 GF   12.400948 MEq/s
Q2 G[   24   24   32] P[  3  4  4]  1.257e-02 s   93.881000 GF   12.372353 MEq/s
Q2 G[   24   24   32] P[  3  4  4]  1.304e-02 s   90.563626 GF   11.935164 MEq/s
Q2 G[   24   24   32] P[  3  4  4]  1.268e-02 s   93.150333 GF   12.276060 MEq/s
Q2 G[   24   24   32] P[  3  4  4]  1.254e-02 s   94.178272 GF   12.411529 MEq/s
Q2 G[   48   48   64] P[  3  4  4]  5.152e-02 s  181.103427 GF   23.501552 MEq/s
Q2 G[   48   48   64] P[  3  4  4]  5.004e-02 s  185.738933 GF   24.109352 MEq/s
Q2 G[   48   48   64] P[  3  4  4]  4.997e-02 s  186.628067 GF   24.224764 MEq/s
Q2 G[   48   48   64] P[  3  4  4]  5.357e-02 s  171.307914 GF   22.236172 MEq/s
Q2 G[   48   48   64] P[  3  4  4]  5.296e-02 s  176.171866 GF   22.867524 MEq/s
Q2 G[   48   48   64] P[  3  4  4]  5.083e-02 s  183.023373 GF   23.756866 MEq/s
Q2 G[   48   48   64] P[  3  4  4]  5.179e-02 s  180.142485 GF   23.382920 MEq/s
Q2 G[   48   48   64] P[  3  4  4]  5.373e-02 s  173.019625 GF   22.458356 MEq/s
Q2 G[   48   48   64] P[  3  4  4]  4.978e-02 s  184.919241 GF   24.002954 MEq/s
Q2 G[   48   48   64] P[  3  4  4]  6.047e-02 s  154.380697 GF   20.038979 MEq/s
Q2 G[   48   48   64] P[  3  4  4]  4.989e-02 s  187.091898 GF   24.284970 MEq/s
Q2 G[   48   48   64] P[  3  4  4]  4.987e-02 s  187.107071 GF   24.286940 MEq/s
Q2 G[   48   48   64] P[  3  4  4]  4.987e-02 s  187.124925 GF   24.289257 MEq/s
Q2 G[   48   48   64] P[  3  4  4]  5.001e-02 s  186.572136 GF   24.217504 MEq/s
Q2 G[   48   48   64] P[  3  4  4]  4.994e-02 s  186.486972 GF   24.206450 MEq/s
Q2 G[   48   48   64] P[  3  4  4]  5.056e-02 s  184.506895 GF   23.949431 MEq/s
Q2 G[   48   48   64] P[  3  4  4]  5.044e-02 s  184.901806 GF   24.000691 MEq/s
Q2 G[   48   48   64] P[  3  4  4]  5.335e-02 s  174.788475 GF   22.687957 MEq/s
Q2 G[   48   48   64] P[  3  4  4]  5.181e-02 s  179.903680 GF   23.351923 MEq/s
Q2 G[   48   48   64] P[  3  4  4]  5.186e-02 s  179.695965 GF   23.324961 MEq/s
Q2 G[   96   96  128] P[  3  4  4]  3.594e-01 s  207.374599 GF   26.587816 MEq/s
Q2 G[   96   96  128] P[  3  4  4]  3.482e-01 s  213.351249 GF   27.361108 MEq/s
Q2 G[   96   96  128] P[  3  4  4]  3.511e-01 s  212.213888 GF   27.215248 MEq/s
Q2 G[   96   96  128] P[  3  4  4]  3.480e-01 s  214.067050 GF   27.452905 MEq/s
Q2 G[   96   96  128] P[  3  4  4]  3.508e-01 s  212.223094 GF   27.216428 MEq/s
Q2 G[  192  192  256] P[  3  4  4]  2.824e+00 s  211.016109 GF   26.873393 MEq/s
Q2 G[  192  192  256] P[  3  4  4]  2.757e+00 s  216.104268 GF   27.528394 MEq/s
Q2 G[  192  192  256] P[  3  4  4]  2.759e+00 s  215.969473 GF   27.511223 MEq/s
Q2 G[  192  192  256] P[  3  4  4]  2.758e+00 s  216.056788 GF   27.522346 MEq/s
Q2 G[  192  192  256] P[  3  4  4]  2.761e+00 s  215.794125 GF   27.488886 MEq/s
Q2 G[  384  384  512] P[  3  4  4]  2.244e+01 s  212.528665 GF   26.972486 MEq/s
Q2 G[  384  384  512] P[  3  4  4]  2.219e+01 s  214.878941 GF   27.277689 MEq/s
Q2 G[  384  384  512] P[  3  4  4]  2.196e+01 s  217.112376 GF   27.561211 MEq/s
Q2 G[  384  384  512] P[  3  4  4]  2.196e+01 s  217.129573 GF   27.563394 MEq/s
Q2 G[  384  384  512] P[  3  4  4]  2.196e+01 s  217.128120 GF   27.563210 MEq/s
