Finite Element FAS Performance Sampler on process grid [2 2 4] = 16
Max memory per MPI rank: 0.018248 GB
Small Test G[    8    8   12]
Q2 G[    8    8   12] P[  2  2  4]  4.449e-03 s   11.556631 GF    1.621480 MEq/s
Large Test G[  192  256  256]
Q2  0 e_max 1.22e-01(0.0) e_L2 8.73e-02(0.0) r_2 1.20e-08(0.0) G[    3    4    4] L[   3   4   4] P[  1  1  1]
Q2  1 e_max 2.21e-02(2.5) e_L2 1.21e-02(2.9) r_2 4.73e-03(-18.6) G[    6    8    8] L[   6   8   4] P[  1  1  2]
Q2  2 e_max 2.72e-03(3.0) e_L2 1.54e-03(3.0) r_2 2.09e-03(1.2) G[   12   16   16] L[   6   8   4] P[  2  2  4]
Q2  3 e_max 3.56e-04(2.9) e_L2 1.93e-04(3.0) r_2 9.08e-04(1.2) G[   24   32   32] L[  12  16   8] P[  2  2  4]
Q2  4 e_max 4.49e-05(3.0) e_L2 2.42e-05(3.0) r_2 4.18e-04(1.1) G[   48   64   64] L[  24  32  16] P[  2  2  4]
Q2  5 e_max 5.57e-06(3.0) e_L2 3.02e-06(3.0) r_2 2.04e-04(1.0) G[   96  128  128] L[  48  64  32] P[  2  2  4]
Q2  6 e_max 7.04e-07(3.0) e_L2 3.78e-07(3.0) r_2 1.02e-04(1.0) G[  192  256  256] L[  96 128  64] P[  2  2  4]
Q2 G[  192  256  256] P[  2  2  4]  1.914e+01 s   54.269029 GF    5.293069 MEq/s
Max memory per MPI rank: 1.125937 GB
Starting performance sampling
Q2 G[    8    8   12] P[  2  2  4]  3.792e-03 s   13.543730 GF    1.900285 MEq/s
Q2 G[    8    8   12] P[  2  2  4]  3.488e-03 s   14.723577 GF    2.066406 MEq/s
Q2 G[    8    8   12] P[  2  2  4]  3.474e-03 s   14.775971 GF    2.073759 MEq/s
Q2 G[    8    8   12] P[  2  2  4]  3.480e-03 s   14.757792 GF    2.071208 MEq/s
Q2 G[    8    8   12] P[  2  2  4]  3.480e-03 s   14.746705 GF    2.069652 MEq/s
Q2 G[    8    8   12] P[  2  2  4]  3.470e-03 s   14.796221 GF    2.076602 MEq/s
Q2 G[    8    8   12] P[  2  2  4]  3.476e-03 s   14.769906 GF    2.072908 MEq/s
Q2 G[    8    8   12] P[  2  2  4]  3.478e-03 s   14.766876 GF    2.072483 MEq/s
Q2 G[    8    8   12] P[  2  2  4]  3.479e-03 s   14.761828 GF    2.071775 MEq/s
Q2 G[    8    8   12] P[  2  2  4]  3.477e-03 s   14.770917 GF    2.073050 MEq/s
Q2 G[    8    8   12] P[  2  2  4]  3.481e-03 s   14.745698 GF    2.069511 MEq/s
Q2 G[    8    8   12] P[  2  2  4]  3.476e-03 s   14.501092 GF    2.035181 MEq/s
Q2 G[    8    8   12] P[  2  2  4]  3.490e-03 s   14.711539 GF    2.064717 MEq/s
Q2 G[    8    8   12] P[  2  2  4]  3.486e-03 s   14.717556 GF    2.065561 MEq/s
Q2 G[    8    8   12] P[  2  2  4]  3.529e-03 s   14.547989 GF    2.041763 MEq/s
Q2 G[    8    8   12] P[  2  2  4]  3.477e-03 s   14.766876 GF    2.072483 MEq/s
Q2 G[    8    8   12] P[  2  2  4]  3.471e-03 s   14.787102 GF    2.075322 MEq/s
Q2 G[    8    8   12] P[  2  2  4]  3.476e-03 s   14.780016 GF    2.074327 MEq/s
Q2 G[    8    8   12] P[  2  2  4]  3.476e-03 s   14.767886 GF    2.072625 MEq/s
Q2 G[    8    8   12] P[  2  2  4]  3.476e-03 s   14.777993 GF    2.074043 MEq/s
Q2 G[    8    8   12] P[  2  2  4]  3.477e-03 s   14.775971 GF    2.073759 MEq/s
Q2 G[    8    8   12] P[  2  2  4]  3.476e-03 s   14.759810 GF    2.071491 MEq/s
Q2 G[    8    8   12] P[  2  2  4]  3.648e-03 s   14.069281 GF    1.974578 MEq/s
Q2 G[    8    8   12] P[  2  2  4]  3.483e-03 s   14.683527 GF    2.060785 MEq/s
Q2 G[    8    8   12] P[  2  2  4]  3.524e-03 s   14.580408 GF    2.046313 MEq/s
Q2 G[    8    8   12] P[  2  2  4]  3.496e-03 s   14.696519 GF    2.062609 MEq/s
Q2 G[    8    8   12] P[  2  2  4]  3.485e-03 s   14.738653 GF    2.068522 MEq/s
Q2 G[    8    8   12] P[  2  2  4]  3.498e-03 s   14.688521 GF    2.061486 MEq/s
Q2 G[    8    8   12] P[  2  2  4]  3.488e-03 s   14.726590 GF    2.066829 MEq/s
Q2 G[    8    8   12] P[  2  2  4]  3.493e-03 s   14.707531 GF    2.064154 MEq/s
Q2 G[    8    8   12] P[  2  2  4]  3.494e-03 s   14.698520 GF    2.062889 MEq/s
Q2 G[    8    8   12] P[  2  2  4]  3.562e-03 s   14.411083 GF    2.022549 MEq/s
Q2 G[    8    8   12] P[  2  2  4]  3.549e-03 s   14.495251 GF    2.034361 MEq/s
Q2 G[    8    8   12] P[  2  2  4]  3.494e-03 s   14.694519 GF    2.062328 MEq/s
Q2 G[    8    8   12] P[  2  2  4]  3.494e-03 s   14.697520 GF    2.062749 MEq/s
Q2 G[    8    8   12] P[  2  2  4]  3.483e-03 s   14.745698 GF    2.069511 MEq/s
Q2 G[    8    8   12] P[  2  2  4]  3.496e-03 s   14.694519 GF    2.062328 MEq/s
Q2 G[    8    8   12] P[  2  2  4]  3.485e-03 s   14.739659 GF    2.068663 MEq/s
Q2 G[    8    8   12] P[  2  2  4]  3.495e-03 s   14.692519 GF    2.062047 MEq/s
Q2 G[    8    8   12] P[  2  2  4]  3.492e-03 s   14.711539 GF    2.064717 MEq/s
Q2 G[    8    8   12] P[  2  2  4]  3.492e-03 s   14.710537 GF    2.064576 MEq/s
Q2 G[    8    8   12] P[  2  2  4]  3.495e-03 s   14.698520 GF    2.062889 MEq/s
Q2 G[    8    8   12] P[  2  2  4]  3.488e-03 s   14.725585 GF    2.066688 MEq/s
Q2 G[    8    8   12] P[  2  2  4]  3.572e-03 s   14.385161 GF    2.018910 MEq/s
Q2 G[    8    8   12] P[  2  2  4]  3.494e-03 s   14.715550 GF    2.065280 MEq/s
Q2 G[    8    8   12] P[  2  2  4]  3.482e-03 s   14.748720 GF    2.069935 MEq/s
Q2 G[    8    8   12] P[  2  2  4]  3.493e-03 s   14.703525 GF    2.063592 MEq/s
Q2 G[    8    8   12] P[  2  2  4]  3.497e-03 s   14.689520 GF    2.061626 MEq/s
Q2 G[    8    8   12] P[  2  2  4]  3.489e-03 s   14.724581 GF    2.066547 MEq/s
Q2 G[    8    8   12] P[  2  2  4]  3.494e-03 s   14.704526 GF    2.063732 MEq/s
Q2 G[    8    8   12] P[  2  2  4]  3.490e-03 s   14.726590 GF    2.066829 MEq/s
Q2 G[    8    8   12] P[  2  2  4]  3.492e-03 s   14.712542 GF    2.064857 MEq/s
Q2 G[    8    8   12] P[  2  2  4]  3.494e-03 s   14.706529 GF    2.064014 MEq/s
Q2 G[    8    8   12] P[  2  2  4]  3.493e-03 s   14.709535 GF    2.064435 MEq/s
Q2 G[    8    8   12] P[  2  2  4]  4.439e-03 s   11.586867 GF    1.626179 MEq/s
Q2 G[    8    8   12] P[  2  2  4]  3.495e-03 s   14.695519 GF    2.062468 MEq/s
Q2 G[    8    8   12] P[  2  2  4]  3.495e-03 s   14.699521 GF    2.063030 MEq/s
Q2 G[    8    8   12] P[  2  2  4]  3.492e-03 s   14.712542 GF    2.064857 MEq/s
Q2 G[    8    8   12] P[  2  2  4]  3.493e-03 s   14.703525 GF    2.063592 MEq/s
Q2 G[    8    8   12] P[  2  2  4]  3.488e-03 s   14.733624 GF    2.067816 MEq/s
Q2 G[    8    8   12] P[  2  2  4]  3.492e-03 s   14.710537 GF    2.064576 MEq/s
Q2 G[    8    8   12] P[  2  2  4]  3.492e-03 s   14.684525 GF    2.060925 MEq/s
Q2 G[    8    8   12] P[  2  2  4]  3.492e-03 s   14.711539 GF    2.064717 MEq/s
Q2 G[    8    8   12] P[  2  2  4]  3.488e-03 s   14.730609 GF    2.067393 MEq/s
Q2 G[    8    8   12] P[  2  2  4]  3.489e-03 s   14.723577 GF    2.066406 MEq/s
Q2 G[    8    8   12] P[  2  2  4]  3.490e-03 s   14.716553 GF    2.065420 MEq/s
Q2 G[    8    8   12] P[  2  2  4]  3.497e-03 s   14.690520 GF    2.061767 MEq/s
Q2 G[    8    8   12] P[  2  2  4]  3.502e-03 s   14.672551 GF    2.059245 MEq/s
Q2 G[    8    8   12] P[  2  2  4]  3.489e-03 s   14.720566 GF    2.065984 MEq/s
Q2 G[    8    8   12] P[  2  2  4]  3.497e-03 s   14.690520 GF    2.061767 MEq/s
Q2 G[    8    8   12] P[  2  2  4]  3.490e-03 s   14.717556 GF    2.065561 MEq/s
Q2 G[    8    8   12] P[  2  2  4]  3.496e-03 s   14.692519 GF    2.062047 MEq/s
Q2 G[    8    8   12] P[  2  2  4]  3.489e-03 s   14.722573 GF    2.066265 MEq/s
Q2 G[    8    8   12] P[  2  2  4]  3.495e-03 s   14.695519 GF    2.062468 MEq/s
Q2 G[    8    8   12] P[  2  2  4]  3.495e-03 s   14.709535 GF    2.064435 MEq/s
Q2 G[    8    8   12] P[  2  2  4]  3.486e-03 s   14.736641 GF    2.068240 MEq/s
Q2 G[    8    8   12] P[  2  2  4]  3.494e-03 s   14.701522 GF    2.063311 MEq/s
Q2 G[    8    8   12] P[  2  2  4]  3.491e-03 s   14.709535 GF    2.064435 MEq/s
Q2 G[    8    8   12] P[  2  2  4]  3.563e-03 s   14.417819 GF    2.023494 MEq/s
Q2 G[    8    8   12] P[  2  2  4]  3.498e-03 s   14.686523 GF    2.061206 MEq/s
Q2 G[    8    8   12] P[  2  2  4]  3.491e-03 s   14.719562 GF    2.065843 MEq/s
Q2 G[    8    8   12] P[  2  2  4]  3.487e-03 s   14.721570 GF    2.066124 MEq/s
Q2 G[    8    8   12] P[  2  2  4]  3.491e-03 s   14.706529 GF    2.064014 MEq/s
Q2 G[    8    8   12] P[  2  2  4]  3.490e-03 s   14.721570 GF    2.066124 MEq/s
Q2 G[    8    8   12] P[  2  2  4]  3.479e-03 s   14.767886 GF    2.072625 MEq/s
Q2 G[    8    8   12] P[  2  2  4]  3.494e-03 s   14.704526 GF    2.063732 MEq/s
Q2 G[    8    8   12] P[  2  2  4]  3.485e-03 s   14.742678 GF    2.069087 MEq/s
Q2 G[    8    8   12] P[  2  2  4]  3.485e-03 s   14.741671 GF    2.068946 MEq/s
Q2 G[    8    8   12] P[  2  2  4]  3.507e-03 s   14.649655 GF    2.056031 MEq/s
Q2 G[    8    8   12] P[  2  2  4]  3.498e-03 s   14.685524 GF    2.061066 MEq/s
Q2 G[    8    8   12] P[  2  2  4]  3.493e-03 s   14.704526 GF    2.063732 MEq/s
Q2 G[    8    8   12] P[  2  2  4]  3.487e-03 s   14.719562 GF    2.065843 MEq/s
Q2 G[    8    8   12] P[  2  2  4]  3.495e-03 s   14.688521 GF    2.061486 MEq/s
Q2 G[    8    8   12] P[  2  2  4]  3.477e-03 s   14.764856 GF    2.072200 MEq/s
Q2 G[    8    8   12] P[  2  2  4]  3.490e-03 s   14.717556 GF    2.065561 MEq/s
Q2 G[    8    8   12] P[  2  2  4]  3.492e-03 s   14.698520 GF    2.062889 MEq/s
Q2 G[    8    8   12] P[  2  2  4]  3.493e-03 s   14.697520 GF    2.062749 MEq/s
Q2 G[    8    8   12] P[  2  2  4]  3.489e-03 s   14.711539 GF    2.064717 MEq/s
Q2 G[    8    8   12] P[  2  2  4]  3.620e-03 s   14.181089 GF    1.990270 MEq/s
Q2 G[    8    8   12] P[  2  2  4]  3.569e-03 s   14.387078 GF    2.019180 MEq/s
Q2 G[    8    8   12] P[  2  2  4]  3.491e-03 s   14.715550 GF    2.065280 MEq/s
Q2 G[    8    8   12] P[  2  2  4]  3.491e-03 s   14.704526 GF    2.063732 MEq/s
Q2 G[    8    8   12] P[  2  2  4]  3.493e-03 s   14.700522 GF    2.063170 MEq/s
Q2 G[    8    8   12] P[  2  2  4]  3.483e-03 s   14.746705 GF    2.069652 MEq/s
Q2 G[    8    8   12] P[  2  2  4]  3.498e-03 s   14.678536 GF    2.060085 MEq/s
Q2 G[    8    8   12] P[  2  2  4]  3.485e-03 s   14.744691 GF    2.069369 MEq/s
Q2 G[    8    8   12] P[  2  2  4]  3.488e-03 s   14.723577 GF    2.066406 MEq/s
Q2 G[    8    8   12] P[  2  2  4]  3.501e-03 s   14.664579 GF    2.058126 MEq/s
Q2 G[    8    8   12] P[  2  2  4]  3.489e-03 s   14.722573 GF    2.066265 MEq/s
Q2 G[    8    8   12] P[  2  2  4]  3.498e-03 s   14.679534 GF    2.060225 MEq/s
Q2 G[    8    8   12] P[  2  2  4]  3.497e-03 s   14.684525 GF    2.060925 MEq/s
Q2 G[    8    8   12] P[  2  2  4]  3.488e-03 s   14.728599 GF    2.067111 MEq/s
Q2 G[    8    8   12] P[  2  2  4]  3.481e-03 s   14.751743 GF    2.070359 MEq/s
Q2 G[    8    8   12] P[  2  2  4]  3.503e-03 s   14.662587 GF    2.057846 MEq/s
Q2 G[    8    8   12] P[  2  2  4]  3.490e-03 s   14.711539 GF    2.064717 MEq/s
Q2 G[    8    8   12] P[  2  2  4]  3.488e-03 s   14.721570 GF    2.066124 MEq/s
Q2 G[    8    8   12] P[  2  2  4]  3.499e-03 s   14.687522 GF    2.061346 MEq/s
Q2 G[    8    8   12] P[  2  2  4]  3.501e-03 s   14.644687 GF    2.055334 MEq/s
Q2 G[    8    8   12] P[  2  2  4]  3.491e-03 s   14.703525 GF    2.063592 MEq/s
Q2 G[    8    8   12] P[  2  2  4]  3.487e-03 s   14.725585 GF    2.066688 MEq/s
Q2 G[    8    8   12] P[  2  2  4]  3.494e-03 s   14.694519 GF    2.062328 MEq/s
Q2 G[    8    8   12] P[  2  2  4]  3.485e-03 s   14.742678 GF    2.069087 MEq/s
Q2 G[    8    8   12] P[  2  2  4]  3.493e-03 s    8.758062 GF    1.229166 MEq/s
Q2 G[    8    8   12] P[  2  2  4]  3.495e-03 s   14.689520 GF    2.061626 MEq/s
Q2 G[    8    8   12] P[  2  2  4]  3.488e-03 s   14.718559 GF    2.065702 MEq/s
Q2 G[    8    8   12] P[  2  2  4]  3.490e-03 s   14.712542 GF    2.064857 MEq/s
Q2 G[    8    8   12] P[  2  2  4]  3.490e-03 s   14.726590 GF    2.066829 MEq/s
Q2 G[    8    8   12] P[  2  2  4]  3.505e-03 s   14.644687 GF    2.055334 MEq/s
Q2 G[    8    8   12] P[  2  2  4]  3.500e-03 s   14.666571 GF    2.058406 MEq/s
Q2 G[    8    8   12] P[  2  2  4]  3.490e-03 s   14.709535 GF    2.064435 MEq/s
Q2 G[    8    8   12] P[  2  2  4]  3.495e-03 s   14.690520 GF    2.061767 MEq/s
Q2 G[    8    8   12] P[  2  2  4]  3.487e-03 s   14.725585 GF    2.066688 MEq/s
Q2 G[    8    8   12] P[  2  2  4]  3.490e-03 s   14.713544 GF    2.064998 MEq/s
Q2 G[    8    8   12] P[  2  2  4]  3.485e-03 s   14.609016 GF    2.050328 MEq/s
Q2 G[    8    8   12] P[  2  2  4]  3.493e-03 s   14.692519 GF    2.062047 MEq/s
Q2 G[    8    8   12] P[  2  2  4]  3.489e-03 s   14.706529 GF    2.064014 MEq/s
Q2 G[    8    8   12] P[  2  2  4]  3.482e-03 s   14.752751 GF    2.070501 MEq/s
Q2 G[    8    8   12] P[  2  2  4]  3.560e-03 s   14.428417 GF    2.024981 MEq/s
Q2 G[    8    8   12] P[  2  2  4]  3.485e-03 s   14.737647 GF    2.068381 MEq/s
Q2 G[    8    8   12] P[  2  2  4]  3.492e-03 s   14.712542 GF    2.064857 MEq/s
Q2 G[    8    8   12] P[  2  2  4]  3.491e-03 s   14.714547 GF    2.065139 MEq/s
Q2 G[    8    8   12] P[  2  2  4]  3.485e-03 s   14.729604 GF    2.067252 MEq/s
Q2 G[    8    8   12] P[  2  2  4]  3.487e-03 s   14.724581 GF    2.066547 MEq/s
Q2 G[    8    8   12] P[  2  2  4]  3.490e-03 s   14.712542 GF    2.064857 MEq/s
Q2 G[    8    8   12] P[  2  2  4]  3.487e-03 s   14.726590 GF    2.066829 MEq/s
Q2 G[    8    8   12] P[  2  2  4]  3.482e-03 s   14.755775 GF    2.070925 MEq/s
Q2 G[    8    8   12] P[  2  2  4]  3.481e-03 s   14.751743 GF    2.070359 MEq/s
Q2 G[    8    8   12] P[  2  2  4]  3.494e-03 s   14.700522 GF    2.063170 MEq/s
Q2 G[    8    8   12] P[  2  2  4]  3.503e-03 s   14.666571 GF    2.058406 MEq/s
Q2 G[    8    8   12] P[  2  2  4]  3.492e-03 s   14.702523 GF    2.063451 MEq/s
Q2 G[    8    8   12] P[  2  2  4]  3.484e-03 s   14.738653 GF    2.068522 MEq/s
Q2 G[    8    8   12] P[  2  2  4]  3.489e-03 s   14.714547 GF    2.065139 MEq/s
Q2 G[    8    8   12] P[  2  2  4]  3.489e-03 s   14.716553 GF    2.065420 MEq/s
Q2 G[    8    8   12] P[  2  2  4]  3.492e-03 s   14.710537 GF    2.064576 MEq/s
Q2 G[    8    8   12] P[  2  2  4]  3.484e-03 s   14.745698 GF    2.069511 MEq/s
Q2 G[    8    8   12] P[  2  2  4]  3.469e-03 s   14.802308 GF    2.077456 MEq/s
Q2 G[    8    8   12] P[  2  2  4]  3.492e-03 s   14.702523 GF    2.063451 MEq/s
Q2 G[    8    8   12] P[  2  2  4]  3.489e-03 s   14.714547 GF    2.065139 MEq/s
Q2 G[    8    8   12] P[  2  2  4]  3.492e-03 s   14.710537 GF    2.064576 MEq/s
Q2 G[    8    8   12] P[  2  2  4]  3.490e-03 s   14.719562 GF    2.065843 MEq/s
Q2 G[    8    8   12] P[  2  2  4]  3.489e-03 s   14.722573 GF    2.066265 MEq/s
Q2 G[    8    8   12] P[  2  2  4]  3.489e-03 s   14.723577 GF    2.066406 MEq/s
Q2 G[    8    8   12] P[  2  2  4]  3.490e-03 s   14.711539 GF    2.064717 MEq/s
Q2 G[    8    8   12] P[  2  2  4]  3.489e-03 s   14.712542 GF    2.064857 MEq/s
Q2 G[    8    8   12] P[  2  2  4]  3.484e-03 s   14.737647 GF    2.068381 MEq/s
Q2 G[    8    8   12] P[  2  2  4]  3.492e-03 s   14.705527 GF    2.063873 MEq/s
Q2 G[    8    8   12] P[  2  2  4]  3.489e-03 s   14.723577 GF    2.066406 MEq/s
Q2 G[    8    8   12] P[  2  2  4]  3.487e-03 s   14.732619 GF    2.067675 MEq/s
Q2 G[    8    8   12] P[  2  2  4]  3.487e-03 s   14.718559 GF    2.065702 MEq/s
Q2 G[    8    8   12] P[  2  2  4]  3.483e-03 s   14.738653 GF    2.068522 MEq/s
Q2 G[    8    8   12] P[  2  2  4]  3.487e-03 s   14.731614 GF    2.067534 MEq/s
Q2 G[    8    8   12] P[  2  2  4]  3.490e-03 s   14.710537 GF    2.064576 MEq/s
Q2 G[    8    8   12] P[  2  2  4]  3.490e-03 s   14.714547 GF    2.065139 MEq/s
Q2 G[    8    8   12] P[  2  2  4]  3.494e-03 s   14.697520 GF    2.062749 MEq/s
Q2 G[    8    8   12] P[  2  2  4]  3.490e-03 s   14.708533 GF    2.064295 MEq/s
Q2 G[    8    8   12] P[  2  2  4]  3.487e-03 s   14.731614 GF    2.067534 MEq/s
Q2 G[    8    8   12] P[  2  2  4]  3.490e-03 s   14.706529 GF    2.064014 MEq/s
Q2 G[    8    8   12] P[  2  2  4]  3.488e-03 s   14.732619 GF    2.067675 MEq/s
Q2 G[    8    8   12] P[  2  2  4]  3.499e-03 s   14.674545 GF    2.059525 MEq/s
Q2 G[    8    8   12] P[  2  2  4]  3.489e-03 s   14.715550 GF    2.065280 MEq/s
Q2 G[    8    8   12] P[  2  2  4]  3.493e-03 s   14.706529 GF    2.064014 MEq/s
Q2 G[    8    8   12] P[  2  2  4]  3.522e-03 s   14.571552 GF    2.045070 MEq/s
Q2 G[    8    8   12] P[  2  2  4]  3.494e-03 s   14.695519 GF    2.062468 MEq/s
Q2 G[    8    8   12] P[  2  2  4]  3.487e-03 s   14.729604 GF    2.067252 MEq/s
Q2 G[    8    8   12] P[  2  2  4]  3.490e-03 s   14.709535 GF    2.064435 MEq/s
Q2 G[    8    8   12] P[  2  2  4]  3.488e-03 s   14.717556 GF    2.065561 MEq/s
Q2 G[    8    8   12] P[  2  2  4]  3.490e-03 s   14.708533 GF    2.064295 MEq/s
Q2 G[    8    8   12] P[  2  2  4]  3.485e-03 s   14.736641 GF    2.068240 MEq/s
Q2 G[    8    8   12] P[  2  2  4]  3.501e-03 s   14.674545 GF    2.059525 MEq/s
Q2 G[    8    8   12] P[  2  2  4]  3.496e-03 s   14.686523 GF    2.061206 MEq/s
Q2 G[    8    8   12] P[  2  2  4]  3.533e-03 s   14.530367 GF    2.039290 MEq/s
Q2 G[    8    8   12] P[  2  2  4]  3.492e-03 s   14.684525 GF    2.060925 MEq/s
Q2 G[    8    8   12] P[  2  2  4]  3.479e-03 s   14.764856 GF    2.072200 MEq/s
Q2 G[    8    8   12] P[  2  2  4]  3.494e-03 s   14.695519 GF    2.062468 MEq/s
Q2 G[    8    8   12] P[  2  2  4]  3.489e-03 s   14.712542 GF    2.064857 MEq/s
Q2 G[    8    8   12] P[  2  2  4]  3.487e-03 s   14.719562 GF    2.065843 MEq/s
Q2 G[    8    8   12] P[  2  2  4]  3.487e-03 s   14.725585 GF    2.066688 MEq/s
Q2 G[    8    8   12] P[  2  2  4]  3.493e-03 s   14.696519 GF    2.062609 MEq/s
Q2 G[    8    8   12] P[  2  2  4]  3.492e-03 s   14.699521 GF    2.063030 MEq/s
Q2 G[    8    8   12] P[  2  2  4]  3.494e-03 s   14.690520 GF    2.061767 MEq/s
Q2 G[    8    8   12] P[  2  2  4]  3.488e-03 s   14.737647 GF    2.068381 MEq/s
Q2 G[    8    8   12] P[  2  2  4]  3.479e-03 s   14.767886 GF    2.072625 MEq/s
Q2 G[    8    8   12] P[  2  2  4]  3.488e-03 s   14.721570 GF    2.066124 MEq/s
Q2 G[    8    8   12] P[  2  2  4]  3.487e-03 s   14.724581 GF    2.066547 MEq/s
Q2 G[    8    8   12] P[  2  2  4]  3.485e-03 s   14.729604 GF    2.067252 MEq/s
Q2 G[    8    8   12] P[  2  2  4]  3.489e-03 s   14.717556 GF    2.065561 MEq/s
Q2 G[    8    8   12] P[  2  2  4]  3.491e-03 s   14.717556 GF    2.065561 MEq/s
Q2 G[    8    8   12] P[  2  2  4]  3.487e-03 s   14.727594 GF    2.066970 MEq/s
Q2 G[    8    8   12] P[  2  2  4]  3.489e-03 s   14.709535 GF    2.064435 MEq/s
Q2 G[    8    8   12] P[  2  2  4]  3.489e-03 s   14.690520 GF    2.061767 MEq/s
Q2 G[    8    8   12] P[  2  2  4]  3.479e-03 s   14.759810 GF    2.071491 MEq/s
Q2 G[    8    8   12] P[  2  2  4]  3.572e-03 s   14.382286 GF    2.018507 MEq/s
Q2 G[    8    8   12] P[  2  2  4]  3.486e-03 s   14.729604 GF    2.067252 MEq/s
Q2 G[    8    8   12] P[  2  2  4]  3.490e-03 s   14.704526 GF    2.063732 MEq/s
Q2 G[    8    8   12] P[  2  2  4]  3.489e-03 s   14.714547 GF    2.065139 MEq/s
Q2 G[    8    8   12] P[  2  2  4]  3.491e-03 s   14.706529 GF    2.064014 MEq/s
Q2 G[    8    8   12] P[  2  2  4]  3.492e-03 s   14.700522 GF    2.063170 MEq/s
Q2 G[    8    8   12] P[  2  2  4]  3.501e-03 s   14.671554 GF    2.059105 MEq/s
Q2 G[    8    8   12] P[  2  2  4]  3.490e-03 s   14.703525 GF    2.063592 MEq/s
Q2 G[    8    8   12] P[  2  2  4]  3.483e-03 s   14.740665 GF    2.068804 MEq/s
Q2 G[    8    8   12] P[  2  2  4]  3.489e-03 s   14.720566 GF    2.065984 MEq/s
Q2 G[    8    8   12] P[  2  2  4]  3.488e-03 s   14.713544 GF    2.064998 MEq/s
Q2 G[    8    8   12] P[  2  2  4]  3.485e-03 s   14.728599 GF    2.067111 MEq/s
Q2 G[    8    8   12] P[  2  2  4]  3.499e-03 s   14.665575 GF    2.058266 MEq/s
Q2 G[    8    8   12] P[  2  2  4]  3.483e-03 s   14.742678 GF    2.069087 MEq/s
Q2 G[    8    8   12] P[  2  2  4]  3.489e-03 s   14.719562 GF    2.065843 MEq/s
Q2 G[    8    8   12] P[  2  2  4]  3.491e-03 s   14.702523 GF    2.063451 MEq/s
Q2 G[    8    8   12] P[  2  2  4]  3.493e-03 s   14.694519 GF    2.062328 MEq/s
Q2 G[    8    8   12] P[  2  2  4]  3.482e-03 s   14.747713 GF    2.069793 MEq/s
Q2 G[    8    8   12] P[  2  2  4]  3.481e-03 s   14.750735 GF    2.070218 MEq/s
Q2 G[    8    8   12] P[  2  2  4]  3.494e-03 s   14.693519 GF    2.062188 MEq/s
Q2 G[    8    8   12] P[  2  2  4]  3.490e-03 s   14.715550 GF    2.065280 MEq/s
Q2 G[    8    8   12] P[  2  2  4]  3.489e-03 s   14.717556 GF    2.065561 MEq/s
Q2 G[    8    8   12] P[  2  2  4]  3.488e-03 s   14.721570 GF    2.066124 MEq/s
Q2 G[    8    8   12] P[  2  2  4]  3.486e-03 s   14.738653 GF    2.068522 MEq/s
Q2 G[    8    8   12] P[  2  2  4]  3.489e-03 s   14.712542 GF    2.064857 MEq/s
Q2 G[    8    8   12] P[  2  2  4]  3.488e-03 s   14.717556 GF    2.065561 MEq/s
Q2 G[    8    8   12] P[  2  2  4]  3.484e-03 s   14.506938 GF    2.036002 MEq/s
Q2 G[    8    8   12] P[  2  2  4]  3.481e-03 s   14.748720 GF    2.069935 MEq/s
Q2 G[    8    8   12] P[  2  2  4]  3.486e-03 s   14.733624 GF    2.067816 MEq/s
Q2 G[    8    8   12] P[  2  2  4]  3.503e-03 s   14.651643 GF    2.056310 MEq/s
Q2 G[    8    8   12] P[  2  2  4]  3.491e-03 s   14.706529 GF    2.064014 MEq/s
Q2 G[    8    8   12] P[  2  2  4]  3.487e-03 s   14.729604 GF    2.067252 MEq/s
Q2 G[    8    8   12] P[  2  2  4]  3.486e-03 s   14.727594 GF    2.066970 MEq/s
Q2 G[    8    8   12] P[  2  2  4]  3.489e-03 s   14.717556 GF    2.065561 MEq/s
Q2 G[    8    8   12] P[  2  2  4]  3.500e-03 s   14.673548 GF    2.059385 MEq/s
Q2 G[    8    8   12] P[  2  2  4]  3.506e-03 s   14.640715 GF    2.054777 MEq/s
Q2 G[    8    8   12] P[  2  2  4]  3.487e-03 s   14.722573 GF    2.066265 MEq/s
Q2 G[    8    8   12] P[  2  2  4]  3.491e-03 s   14.715550 GF    2.065280 MEq/s
Q2 G[    8    8   12] P[  2  2  4]  3.486e-03 s   14.725585 GF    2.066688 MEq/s
Q2 G[    8    8   12] P[  2  2  4]  3.494e-03 s   14.695519 GF    2.062468 MEq/s
Q2 G[    8    8   12] P[  2  2  4]  3.491e-03 s   14.718559 GF    2.065702 MEq/s
Q2 G[    8    8   12] P[  2  2  4]  3.493e-03 s   14.704526 GF    2.063732 MEq/s
Q2 G[    8    8   12] P[  2  2  4]  3.485e-03 s   14.732619 GF    2.067675 MEq/s
Q2 G[    8    8   12] P[  2  2  4]  3.485e-03 s   14.731614 GF    2.067534 MEq/s
Q2 G[    8    8   12] P[  2  2  4]  3.490e-03 s   14.722573 GF    2.066265 MEq/s
Q2 G[    8    8   12] P[  2  2  4]  3.478e-03 s   14.757792 GF    2.071208 MEq/s
Q2 G[    8    8   12] P[  2  2  4]  3.564e-03 s   14.408198 GF    2.022144 MEq/s
Q2 G[    8    8   12] P[  2  2  4]  1.437e-02 s    3.579834 GF    0.502418 MEq/s
Q2 G[    8    8   12] P[  2  2  4]  3.524e-03 s   14.577455 GF    2.045898 MEq/s
Q2 G[    8    8   12] P[  2  2  4]  3.494e-03 s   14.699521 GF    2.063030 MEq/s
Q2 G[    8    8   12] P[  2  2  4]  3.494e-03 s   14.696519 GF    2.062609 MEq/s
Q2 G[    8    8   12] P[  2  2  4]  3.485e-03 s   14.729604 GF    2.067252 MEq/s
Q2 G[    8    8   12] P[  2  2  4]  3.489e-03 s   14.724581 GF    2.066547 MEq/s
Q2 G[    8    8   12] P[  2  2  4]  3.494e-03 s   14.709535 GF    2.064435 MEq/s
Q2 G[    8    8   12] P[  2  2  4]  3.487e-03 s   14.735635 GF    2.068098 MEq/s
Q2 G[    8    8   12] P[  2  2  4]  3.490e-03 s   14.719562 GF    2.065843 MEq/s
Q2 G[    8    8   12] P[  2  2  4]  3.491e-03 s   14.720566 GF    2.065984 MEq/s
Q2 G[    8    8   12] P[  2  2  4]  3.486e-03 s   14.726590 GF    2.066829 MEq/s
Q2 G[    8    8   12] P[  2  2  4]  3.487e-03 s   14.724581 GF    2.066547 MEq/s
Q2 G[    8    8   12] P[  2  2  4]  3.490e-03 s   14.706529 GF    2.064014 MEq/s
Q2 G[    8    8   12] P[  2  2  4]  3.488e-03 s   14.713544 GF    2.064998 MEq/s
Q2 G[    8    8   12] P[  2  2  4]  3.482e-03 s   14.739659 GF    2.068663 MEq/s
Q2 G[    8    8   12] P[  2  2  4]  3.488e-03 s   14.702523 GF    2.063451 MEq/s
Q2 G[    8    8   12] P[  2  2  4]  3.491e-03 s   14.707531 GF    2.064154 MEq/s
Q2 G[    8    8   12] P[  2  2  4]  3.491e-03 s   14.712542 GF    2.064857 MEq/s
Q2 G[    8    8   12] P[  2  2  4]  3.492e-03 s   14.697520 GF    2.062749 MEq/s
Q2 G[    8    8   12] P[  2  2  4]  3.488e-03 s   14.720566 GF    2.065984 MEq/s
Q2 G[    8    8   12] P[  2  2  4]  3.487e-03 s   14.723577 GF    2.066406 MEq/s
Q2 G[    8    8   12] P[  2  2  4]  3.488e-03 s   14.722573 GF    2.066265 MEq/s
Q2 G[    8    8   12] P[  2  2  4]  3.492e-03 s   14.702523 GF    2.063451 MEq/s
Q2 G[    8    8   12] P[  2  2  4]  3.481e-03 s   14.757792 GF    2.071208 MEq/s
Q2 G[   16   16   24] P[  2  2  4]  1.062e-02 s   36.928199 GF    5.018775 MEq/s
Q2 G[   16   16   24] P[  2  2  4]  1.026e-02 s   38.231554 GF    5.197321 MEq/s
Q2 G[   16   16   24] P[  2  2  4]  1.021e-02 s   38.413528 GF    5.222060 MEq/s
Q2 G[   16   16   24] P[  2  2  4]  1.015e-02 s   38.605389 GF    5.248142 MEq/s
Q2 G[   16   16   24] P[  2  2  4]  1.028e-02 s   38.151818 GF    5.186482 MEq/s
Q2 G[   16   16   24] P[  2  2  4]  1.015e-02 s   38.618972 GF    5.249988 MEq/s
Q2 G[   16   16   24] P[  2  2  4]  1.173e-02 s   33.449114 GF    4.547181 MEq/s
Q2 G[   16   16   24] P[  2  2  4]  1.021e-02 s   38.418010 GF    5.222669 MEq/s
Q2 G[   16   16   24] P[  2  2  4]  1.017e-02 s   38.546637 GF    5.240155 MEq/s
Q2 G[   16   16   24] P[  2  2  4]  1.025e-02 s   38.267989 GF    5.202275 MEq/s
Q2 G[   16   16   24] P[  2  2  4]  1.017e-02 s   38.566502 GF    5.242855 MEq/s
Q2 G[   16   16   24] P[  2  2  4]  1.021e-02 s   38.372344 GF    5.216461 MEq/s
Q2 G[   16   16   24] P[  2  2  4]  1.016e-02 s   38.563792 GF    5.242487 MEq/s
Q2 G[   16   16   24] P[  2  2  4]  1.015e-02 s   38.619878 GF    5.250112 MEq/s
Q2 G[   16   16   24] P[  2  2  4]  1.018e-02 s   38.507869 GF    5.234885 MEq/s
Q2 G[   16   16   24] P[  2  2  4]  1.017e-02 s   38.560179 GF    5.241996 MEq/s
Q2 G[   16   16   24] P[  2  2  4]  1.024e-02 s   38.277776 GF    5.203605 MEq/s
Q2 G[   16   16   24] P[  2  2  4]  1.021e-02 s   38.399193 GF    5.220111 MEq/s
Q2 G[   16   16   24] P[  2  2  4]  1.015e-02 s   38.621690 GF    5.250358 MEq/s
Q2 G[   16   16   24] P[  2  2  4]  1.029e-02 s   38.118252 GF    5.181919 MEq/s
Q2 G[   16   16   24] P[  2  2  4]  1.016e-02 s   38.607199 GF    5.248388 MEq/s
Q2 G[   16   16   24] P[  2  2  4]  1.016e-02 s   38.556567 GF    5.241505 MEq/s
Q2 G[   16   16   24] P[  2  2  4]  1.016e-02 s   38.566502 GF    5.242855 MEq/s
Q2 G[   16   16   24] P[  2  2  4]  1.015e-02 s   38.583675 GF    5.245190 MEq/s
Q2 G[   16   16   24] P[  2  2  4]  1.018e-02 s   38.516878 GF    5.236109 MEq/s
Q2 G[   16   16   24] P[  2  2  4]  1.015e-02 s   38.618972 GF    5.249988 MEq/s
Q2 G[   16   16   24] P[  2  2  4]  1.824e-02 s   21.504812 GF    2.923434 MEq/s
Q2 G[   16   16   24] P[  2  2  4]  1.041e-02 s   37.649281 GF    5.118165 MEq/s
Q2 G[   16   16   24] P[  2  2  4]  1.016e-02 s   38.580058 GF    5.244698 MEq/s
Q2 G[   16   16   24] P[  2  2  4]  1.016e-02 s   38.074175 GF    5.175927 MEq/s
Q2 G[   16   16   24] P[  2  2  4]  1.023e-02 s   38.325894 GF    5.210146 MEq/s
Q2 G[   16   16   24] P[  2  2  4]  1.016e-02 s   38.582771 GF    5.245067 MEq/s
Q2 G[   16   16   24] P[  2  2  4]  1.016e-02 s   38.567406 GF    5.242978 MEq/s
Q2 G[   16   16   24] P[  2  2  4]  1.024e-02 s   38.313407 GF    5.208449 MEq/s
Q2 G[   16   16   24] P[  2  2  4]  1.015e-02 s   38.609010 GF    5.248634 MEq/s
Q2 G[   16   16   24] P[  2  2  4]  1.017e-02 s   38.570116 GF    5.243347 MEq/s
Q2 G[   16   16   24] P[  2  2  4]  1.016e-02 s   38.599958 GF    5.247404 MEq/s
Q2 G[   16   16   24] P[  2  2  4]  1.015e-02 s   38.616255 GF    5.249619 MEq/s
Q2 G[   16   16   24] P[  2  2  4]  1.017e-02 s   38.564695 GF    5.242610 MEq/s
Q2 G[   16   16   24] P[  2  2  4]  1.015e-02 s   38.632566 GF    5.251836 MEq/s
Q2 G[   16   16   24] P[  2  2  4]  1.017e-02 s   38.538516 GF    5.239051 MEq/s
Q2 G[   16   16   24] P[  2  2  4]  1.016e-02 s   38.609916 GF    5.248757 MEq/s
Q2 G[   16   16   24] P[  2  2  4]  1.022e-02 s   38.352678 GF    5.213787 MEq/s
Q2 G[   16   16   24] P[  2  2  4]  1.019e-02 s   38.452107 GF    5.227304 MEq/s
Q2 G[   16   16   24] P[  2  2  4]  1.015e-02 s   38.618972 GF    5.249988 MEq/s
Q2 G[   16   16   24] P[  2  2  4]  1.017e-02 s   38.543027 GF    5.239664 MEq/s
Q2 G[   16   16   24] P[  2  2  4]  1.016e-02 s   38.570116 GF    5.243347 MEq/s
Q2 G[   16   16   24] P[  2  2  4]  1.017e-02 s   38.514174 GF    5.235742 MEq/s
Q2 G[   16   16   24] P[  2  2  4]  1.015e-02 s   38.582771 GF    5.245067 MEq/s
Q2 G[   16   16   24] P[  2  2  4]  1.016e-02 s   38.552053 GF    5.240891 MEq/s
Q2 G[   16   16   24] P[  2  2  4]  1.016e-02 s   38.589101 GF    5.245928 MEq/s
Q2 G[   16   16   24] P[  2  2  4]  1.017e-02 s   38.558373 GF    5.241750 MEq/s
Q2 G[   16   16   24] P[  2  2  4]  1.016e-02 s   38.580963 GF    5.244821 MEq/s
Q2 G[   16   16   24] P[  2  2  4]  1.015e-02 s   38.603578 GF    5.247896 MEq/s
Q2 G[   16   16   24] P[  2  2  4]  1.016e-02 s   38.533104 GF    5.238315 MEq/s
Q2 G[   16   16   24] P[  2  2  4]  1.015e-02 s   38.619878 GF    5.250112 MEq/s
Q2 G[   16   16   24] P[  2  2  4]  1.017e-02 s   38.585484 GF    5.245436 MEq/s
Q2 G[   16   16   24] P[  2  2  4]  1.016e-02 s   38.561082 GF    5.242119 MEq/s
Q2 G[   16   16   24] P[  2  2  4]  1.015e-02 s   38.641633 GF    5.253069 MEq/s
Q2 G[   16   16   24] P[  2  2  4]  1.016e-02 s   38.584579 GF    5.245313 MEq/s
Q2 G[   16   16   24] P[  2  2  4]  1.016e-02 s   38.579154 GF    5.244575 MEq/s
Q2 G[   16   16   24] P[  2  2  4]  1.016e-02 s   38.588197 GF    5.245805 MEq/s
Q2 G[   16   16   24] P[  2  2  4]  1.015e-02 s   38.590910 GF    5.246174 MEq/s
Q2 G[   16   16   24] P[  2  2  4]  1.017e-02 s   38.554761 GF    5.241259 MEq/s
Q2 G[   16   16   24] P[  2  2  4]  1.016e-02 s   38.583675 GF    5.245190 MEq/s
Q2 G[   16   16   24] P[  2  2  4]  1.017e-02 s   38.573731 GF    5.243838 MEq/s
Q2 G[   16   16   24] P[  2  2  4]  1.016e-02 s   38.576443 GF    5.244207 MEq/s
Q2 G[   16   16   24] P[  2  2  4]  1.016e-02 s   38.563792 GF    5.242487 MEq/s
Q2 G[   16   16   24] P[  2  2  4]  1.016e-02 s   38.569213 GF    5.243224 MEq/s
Q2 G[   16   16   24] P[  2  2  4]  1.022e-02 s   38.363402 GF    5.215245 MEq/s
Q2 G[   16   16   24] P[  2  2  4]  1.016e-02 s   38.569213 GF    5.243224 MEq/s
Q2 G[   16   16   24] P[  2  2  4]  1.015e-02 s   38.615349 GF    5.249496 MEq/s
Q2 G[   16   16   24] P[  2  2  4]  1.015e-02 s   38.620784 GF    5.250235 MEq/s
Q2 G[   16   16   24] P[  2  2  4]  1.016e-02 s   38.612632 GF    5.249127 MEq/s
Q2 G[   16   16   24] P[  2  2  4]  1.016e-02 s   38.568309 GF    5.243101 MEq/s
Q2 G[   16   16   24] P[  2  2  4]  1.016e-02 s   38.581867 GF    5.244944 MEq/s
Q2 G[   16   16   24] P[  2  2  4]  1.017e-02 s   38.564695 GF    5.242610 MEq/s
Q2 G[   16   16   24] P[  2  2  4]  1.016e-02 s   38.606294 GF    5.248265 MEq/s
Q2 G[   16   16   24] P[  2  2  4]  1.025e-02 s   38.257318 GF    5.200824 MEq/s
Q2 G[   16   16   24] P[  2  2  4]  1.018e-02 s   38.524088 GF    5.237089 MEq/s
Q2 G[   16   16   24] P[  2  2  4]  1.016e-02 s   38.586388 GF    5.245559 MEq/s
Q2 G[   16   16   24] P[  2  2  4]  1.023e-02 s   38.339281 GF    5.211966 MEq/s
Q2 G[   16   16   24] P[  2  2  4]  1.016e-02 s   38.603578 GF    5.247896 MEq/s
Q2 G[   16   16   24] P[  2  2  4]  1.017e-02 s   38.567406 GF    5.242978 MEq/s
Q2 G[   16   16   24] P[  2  2  4]  1.016e-02 s   38.585484 GF    5.245436 MEq/s
Q2 G[   16   16   24] P[  2  2  4]  1.015e-02 s   38.633472 GF    5.251960 MEq/s
Q2 G[   16   16   24] P[  2  2  4]  1.017e-02 s   38.571020 GF    5.243470 MEq/s
Q2 G[   16   16   24] P[  2  2  4]  1.015e-02 s   38.635285 GF    5.252206 MEq/s
Q2 G[   16   16   24] P[  2  2  4]  1.037e-02 s   37.847481 GF    5.145109 MEq/s
Q2 G[   16   16   24] P[  2  2  4]  1.016e-02 s   38.611727 GF    5.249003 MEq/s
Q2 G[   16   16   24] P[  2  2  4]  1.016e-02 s   38.569213 GF    5.243224 MEq/s
Q2 G[   16   16   24] P[  2  2  4]  1.015e-02 s   38.614444 GF    5.249373 MEq/s
Q2 G[   16   16   24] P[  2  2  4]  1.016e-02 s   38.593624 GF    5.246542 MEq/s
Q2 G[   16   16   24] P[  2  2  4]  1.017e-02 s   38.540321 GF    5.239296 MEq/s
Q2 G[   16   16   24] P[  2  2  4]  1.016e-02 s   38.598148 GF    5.247157 MEq/s
Q2 G[   16   16   24] P[  2  2  4]  1.016e-02 s   38.590006 GF    5.246051 MEq/s
Q2 G[   16   16   24] P[  2  2  4]  1.015e-02 s   38.618067 GF    5.249865 MEq/s
Q2 G[   16   16   24] P[  2  2  4]  1.020e-02 s   38.144747 GF    5.185521 MEq/s
Q2 G[   32   32   48] P[  2  2  4]  5.623e-02 s   55.367024 GF    7.283635 MEq/s
Q2 G[   32   32   48] P[  2  2  4]  5.512e-02 s   56.484546 GF    7.432603 MEq/s
Q2 G[   32   32   48] P[  2  2  4]  5.510e-02 s   56.505802 GF    7.435400 MEq/s
Q2 G[   32   32   48] P[  2  2  4]  5.519e-02 s   56.413805 GF    7.423294 MEq/s
Q2 G[   32   32   48] P[  2  2  4]  5.506e-02 s   56.553260 GF    7.441645 MEq/s
Q2 G[   32   32   48] P[  2  2  4]  5.506e-02 s   56.544447 GF    7.440485 MEq/s
Q2 G[   32   32   48] P[  2  2  4]  5.505e-02 s   56.554729 GF    7.441838 MEq/s
Q2 G[   32   32   48] P[  2  2  4]  5.508e-02 s   56.526830 GF    7.438167 MEq/s
Q2 G[   32   32   48] P[  2  2  4]  5.505e-02 s   56.556688 GF    7.442096 MEq/s
Q2 G[   32   32   48] P[  2  2  4]  5.506e-02 s   56.526341 GF    7.438103 MEq/s
Q2 G[   32   32   48] P[  2  2  4]  5.502e-02 s   56.477464 GF    7.431671 MEq/s
Q2 G[   32   32   48] P[  2  2  4]  5.505e-02 s   56.551791 GF    7.441451 MEq/s
Q2 G[   32   32   48] P[  2  2  4]  5.506e-02 s   56.530499 GF    7.438650 MEq/s
Q2 G[   32   32   48] P[  2  2  4]  5.510e-02 s   56.500181 GF    7.434660 MEq/s
Q2 G[   32   32   48] P[  2  2  4]  5.517e-02 s   56.424771 GF    7.424737 MEq/s
Q2 G[   32   32   48] P[  2  2  4]  5.506e-02 s   56.547629 GF    7.440904 MEq/s
Q2 G[   32   32   48] P[  2  2  4]  6.293e-02 s   49.470101 GF    6.509597 MEq/s
Q2 G[   32   32   48] P[  2  2  4]  5.513e-02 s   56.465501 GF    7.430097 MEq/s
Q2 G[   64   64   96] P[  2  2  4]  4.297e-01 s   57.861925 GF    7.467261 MEq/s
Q2 G[   64   64   96] P[  2  2  4]  4.325e-01 s   57.466006 GF    7.418081 MEq/s
Q2 G[   64   64   96] P[  2  2  4]  4.253e-01 s   58.454740 GF    7.545713 MEq/s
Q2 G[   64   64   96] P[  2  2  4]  4.253e-01 s   58.440827 GF    7.543917 MEq/s
Q2 G[   64   64   96] P[  2  2  4]  4.258e-01 s   58.295421 GF    7.525147 MEq/s
Q2 G[  128  128  192] P[  2  2  4]  3.474e+00 s   57.081670 GF    7.293049 MEq/s
Q2 G[  128  128  192] P[  2  2  4]  3.441e+00 s   57.773583 GF    7.383338 MEq/s
Q2 G[  128  128  192] P[  2  2  4]  3.448e+00 s   57.679431 GF    7.371305 MEq/s
Q2 G[  128  128  192] P[  2  2  4]  3.442e+00 s   57.768832 GF    7.382731 MEq/s
Q2 G[  128  128  192] P[  2  2  4]  3.439e+00 s   57.858190 GF    7.394150 MEq/s
Q2 G[  192  256  256] P[  2  2  4]  1.397e+01 s   56.966407 GF    7.250387 MEq/s
Q2 G[  192  256  256] P[  2  2  4]  1.386e+01 s   57.388478 GF    7.305966 MEq/s
Q2 G[  192  256  256] P[  2  2  4]  1.381e+01 s   57.557148 GF    7.327439 MEq/s
Q2 G[  192  256  256] P[  2  2  4]  1.383e+01 s   57.506027 GF    7.320931 MEq/s
Q2 G[  192  256  256] P[  2  2  4]  1.381e+01 s   57.590440 GF    7.331677 MEq/s
