MemTotal:       131978788 kB
MemFree:        115673592 kB
MemAvailable:   120635692 kB
Buffers:         1192796 kB
Cached:          3888068 kB
SwapCached:            0 kB
Active:          2199140 kB
Inactive:        3137612 kB
Active(anon):     260792 kB
Inactive(anon):    26664 kB
Active(file):    1938348 kB
Inactive(file):  3110948 kB
Unevictable:        5116 kB
Mlocked:            5116 kB
SwapTotal:      62498812 kB
SwapFree:       62498812 kB
Dirty:                28 kB
Writeback:             0 kB
AnonPages:        261060 kB
Mapped:         10015184 kB
Shmem:             28020 kB
Slab:             686300 kB
SReclaimable:     534748 kB
SUnreclaim:       151552 kB
KernelStack:        9088 kB
PageTables:        31812 kB
NFS_Unstable:          0 kB
Bounce:                0 kB
WritebackTmp:          0 kB
CommitLimit:    128488204 kB
Committed_AS:   11284584 kB
VmallocTotal:   34359738367 kB
VmallocUsed:           0 kB
VmallocChunk:          0 kB
HardwareCorrupted:     0 kB
AnonHugePages:    137216 kB
CmaTotal:              0 kB
CmaFree:               0 kB
HugePages_Total:       0
HugePages_Free:        0
HugePages_Rsvd:        0
HugePages_Surp:        0
Hugepagesize:       2048 kB
DirectMap4k:      230504 kB
DirectMap2M:     9164800 kB
DirectMap1G:    126877696 kB
